<svg width="50" height="50" viewBox="0 0 50 50" fill="none" xmlns="http://www.w3.org/2000/svg">
<g opacity="0.7">
<path d="M45.083 25.6579L45.1086 25.0439H43.4201L43.3945 25.6068L45.083 25.6579Z" fill="#27FFF2" fill-opacity="0.4"/>
<path d="M45.0342 26.6048C45.0342 26.6048 45.0342 26.4513 45.0598 26.2978C45.0598 26.2211 45.0598 26.1443 45.0853 26.0931C45.0853 26.042 45.0853 25.9908 45.0853 25.9908L43.3969 25.9141C43.3969 25.9141 43.3969 25.9396 43.3969 26.0164C43.3969 26.0676 43.3969 26.1443 43.3713 26.2211C43.3713 26.3746 43.3457 26.5025 43.3457 26.5025L45.0342 26.6048Z" fill="#27FFF2" fill-opacity="0.4"/>
<path d="M44.9578 27.5507C44.9578 27.5507 44.9834 27.3972 45.009 27.2437C45.0346 27.0902 45.0346 26.9367 45.0346 26.9367L43.3461 26.7832C43.3461 26.7832 43.3461 26.9367 43.3205 27.0646C43.2949 27.2181 43.2949 27.346 43.2949 27.346L44.9578 27.5507Z" fill="#27FFF2" fill-opacity="0.4"/>
<path d="M44.8016 28.4976C44.8016 28.4976 44.8271 28.3441 44.8527 28.1906C44.8783 28.1138 44.8783 28.0371 44.8783 27.9859C44.8783 27.9347 44.8783 27.8836 44.8783 27.8836L43.2154 27.6533C43.2154 27.6533 43.2154 27.6789 43.2154 27.7301C43.2154 27.7812 43.1898 27.858 43.1898 27.9347C43.1643 28.0882 43.1387 28.2161 43.1387 28.2161L44.8016 28.4976Z" fill="#27FFF2" fill-opacity="0.4"/>
<path d="M44.6258 29.4181C44.6258 29.4181 44.6514 29.2646 44.7025 29.1111C44.7281 28.9576 44.7537 28.8041 44.7537 28.8041L43.0908 28.4971C43.0908 28.4971 43.0652 28.6506 43.0396 28.7785C43.0141 28.9064 42.9629 29.0599 42.9629 29.0599L44.6258 29.4181Z" fill="#27FFF2" fill-opacity="0.4"/>
<path d="M44.3951 30.3395C44.3951 30.3395 44.4463 30.186 44.4719 30.0325C44.4975 29.879 44.5486 29.7255 44.5486 29.7255L42.9113 29.3418C42.9113 29.3418 42.8857 29.4697 42.8346 29.6232C42.809 29.7511 42.7578 29.9046 42.7578 29.9046L44.3951 30.3395Z" fill="#27FFF2" fill-opacity="0.4"/>
<path d="M44.1389 31.2346C44.1389 31.2346 44.1389 31.2091 44.1645 31.1323C44.1901 31.0811 44.2156 31.0044 44.2412 30.9276C44.2924 30.7741 44.318 30.6206 44.318 30.6206L42.7062 30.1602C42.7062 30.1602 42.6551 30.2881 42.6295 30.4416C42.6039 30.5183 42.5783 30.5695 42.5783 30.6206C42.5527 30.6718 42.5527 30.6974 42.5527 30.6974L44.1389 31.2346Z" fill="#27FFF2" fill-opacity="0.4"/>
<path d="M43.8068 32.1297C43.8068 32.1297 43.8324 32.1042 43.8324 32.0274C43.858 31.9763 43.8836 31.8995 43.9092 31.8228C43.9603 31.6693 44.0115 31.5158 44.0115 31.5158L42.4254 30.9785C42.4254 30.9785 42.3742 31.1064 42.323 31.2599C42.2975 31.3367 42.2719 31.3878 42.2463 31.439C42.2207 31.4902 42.2207 31.5158 42.2207 31.5158L43.8068 32.1297Z" fill="#27FFF2" fill-opacity="0.4"/>
<path d="M43.4723 33.0254C43.4723 33.0254 43.549 32.872 43.6002 32.744C43.6514 32.5905 43.7281 32.4626 43.7281 32.4626L42.1676 31.8486C42.1676 31.8486 42.1164 31.9765 42.0652 32.1045C42.0141 32.2324 41.9629 32.3603 41.9629 32.3603L43.4723 33.0254Z" fill="#27FFF2" fill-opacity="0.4"/>
<path d="M43.0621 33.8952C43.0621 33.8952 43.0877 33.8696 43.1133 33.8184C43.1389 33.7673 43.1645 33.6905 43.2156 33.6138C43.2924 33.4603 43.3435 33.3323 43.3435 33.3323L41.8086 32.6416C41.8086 32.6416 41.7574 32.7695 41.6806 32.8974C41.6551 32.9742 41.6295 33.0253 41.6039 33.0765C41.5783 33.1277 41.5527 33.1533 41.5527 33.1533L43.0621 33.8952Z" fill="#27FFF2" fill-opacity="0.4"/>
<path d="M42.6303 34.7139C42.6303 34.7139 42.6559 34.6883 42.6815 34.6372C42.707 34.586 42.7326 34.5092 42.7838 34.4581C42.8605 34.3302 42.9373 34.1767 42.9373 34.1767L41.4279 33.4092C41.4279 33.4092 41.3511 33.5371 41.3 33.665C41.2744 33.7162 41.2232 33.7929 41.1977 33.8441C41.1721 33.8953 41.1465 33.9208 41.1465 33.9208L42.6303 34.7139Z" fill="#27FFF2" fill-opacity="0.4"/>
<path d="M42.1672 35.5582C42.1672 35.5582 42.1928 35.5327 42.2184 35.4815C42.244 35.4303 42.2951 35.3536 42.3207 35.3024C42.3975 35.1745 42.4742 35.021 42.4742 35.021L41.016 34.1768C41.016 34.1768 40.9392 34.3047 40.8625 34.4326C40.8369 34.4838 40.7857 34.5605 40.7601 34.6117C40.7346 34.6628 40.709 34.6884 40.709 34.6884L42.1672 35.5582Z" fill="#27FFF2" fill-opacity="0.4"/>
<path d="M41.6295 36.3514C41.6295 36.3514 41.6551 36.3258 41.6807 36.2747C41.7063 36.2235 41.7574 36.1467 41.8086 36.0956C41.8854 35.9677 41.9877 35.8397 41.9877 35.8397L40.555 34.9443C40.555 34.9443 40.4783 35.0723 40.4015 35.1746C40.3504 35.2258 40.3248 35.3025 40.2992 35.3281C40.2736 35.3792 40.248 35.4048 40.248 35.4048L41.6295 36.3514Z" fill="#27FFF2" fill-opacity="0.4"/>
<path d="M41.0922 37.1186L41.4504 36.6069L40.0689 35.6348L39.7363 36.0953L41.0922 37.1186Z" fill="#27FFF2" fill-opacity="0.4"/>
<path d="M40.504 37.8612L40.8877 37.3751L39.5574 36.3262L39.1992 36.7867L40.504 37.8612Z" fill="#27FFF2" fill-opacity="0.4"/>
<path d="M39.8922 38.5772L40.3016 38.0911L39.0224 37.0166L38.6387 37.4515L39.8922 38.5772Z" fill="#27FFF2" fill-opacity="0.4"/>
<path d="M39.2276 39.268L39.6625 38.8075L38.4345 37.6562L38.0508 38.0656L39.2276 39.268Z" fill="#27FFF2" fill-opacity="0.4"/>
<path d="M38.5594 39.9078L38.9944 39.4729L37.8175 38.2705L37.4082 38.6798L38.5594 39.9078Z" fill="#27FFF2" fill-opacity="0.4"/>
<path d="M37.846 40.5469L38.3065 40.1375L37.2064 38.8584L36.7715 39.2421L37.846 40.5469Z" fill="#27FFF2" fill-opacity="0.4"/>
<path d="M37.1034 41.1359L37.5895 40.7522L36.5406 39.4219L36.0801 39.78L37.1034 41.1359Z" fill="#27FFF2" fill-opacity="0.4"/>
<path d="M36.3335 41.673L36.8451 41.3149L35.8474 39.959L35.3613 40.2916L36.3335 41.673Z" fill="#27FFF2" fill-opacity="0.4"/>
<path d="M35.5399 42.2105L36.0516 41.8524L35.1306 40.4453L34.6445 40.7523L35.5399 42.2105Z" fill="#27FFF2" fill-opacity="0.4"/>
<path d="M34.721 42.6705L35.2582 42.3635L34.3884 40.9053L33.9023 41.2123L34.721 42.6705Z" fill="#27FFF2" fill-opacity="0.4"/>
<path d="M33.8806 43.1051L34.4434 42.8237L33.6503 41.3398L33.1387 41.5957L33.8806 43.1051Z" fill="#27FFF2" fill-opacity="0.4"/>
<path d="M33.0089 43.5144L33.5973 43.2586L32.8554 41.7236L32.3438 41.9795L33.0089 43.5144Z" fill="#27FFF2" fill-opacity="0.4"/>
<path d="M32.1413 43.8728L32.7297 43.6426L32.0646 42.082L31.5273 42.3123L32.1413 43.8728Z" fill="#27FFF2" fill-opacity="0.4"/>
<path d="M31.2443 44.2049L31.8327 44.0002L31.2699 42.4141L30.707 42.5931L31.2443 44.2049Z" fill="#27FFF2" fill-opacity="0.4"/>
<path d="M30.3492 44.4615L30.9376 44.308L30.4515 42.6963L29.8887 42.8498L30.3492 44.4615Z" fill="#27FFF2" fill-opacity="0.4"/>
<path d="M29.4267 44.6912C29.4267 44.6912 29.5802 44.6656 29.7337 44.6145C29.8105 44.5889 29.8872 44.5889 29.9384 44.5633C29.9895 44.5633 30.0407 44.5377 30.0407 44.5377L29.6058 42.9004C29.6058 42.9004 29.5802 42.9004 29.529 42.926C29.4779 42.926 29.4011 42.9516 29.3244 42.9771C29.1965 43.0027 29.043 43.0539 29.043 43.0539L29.4267 44.6912Z" fill="#27FFF2" fill-opacity="0.4"/>
<path d="M28.4808 44.8963C28.4808 44.8963 28.6343 44.8707 28.7878 44.8451C28.8646 44.8195 28.9413 44.8195 28.9925 44.7939C29.0436 44.7684 29.0948 44.7684 29.0948 44.7684L28.7366 43.1055C28.7366 43.1055 28.7111 43.1055 28.6599 43.131C28.6087 43.131 28.532 43.1566 28.4552 43.1566C28.3017 43.1822 28.1738 43.2078 28.1738 43.2078L28.4808 44.8963Z" fill="#27FFF2" fill-opacity="0.4"/>
<path d="M27.5582 45.024C27.5582 45.024 27.7117 44.9984 27.8652 44.9729C28.0187 44.9473 28.1722 44.9217 28.1722 44.9217L27.9163 43.2588C27.9163 43.2588 27.7628 43.2844 27.6349 43.31C27.4814 43.3355 27.3535 43.3355 27.3535 43.3355L27.5582 45.024Z" fill="#27FFF2" fill-opacity="0.4"/>
<path d="M26.6123 45.1264C26.6123 45.1264 26.7658 45.1264 26.9193 45.1008C26.996 45.1008 27.0728 45.0752 27.1239 45.0752C27.1751 45.0752 27.2263 45.0752 27.2263 45.0752L27.0472 43.3867C27.0472 43.3867 27.0216 43.3867 26.9705 43.3867C26.9193 43.3867 26.8425 43.4123 26.7658 43.4123C26.6123 43.4123 26.4844 43.4379 26.4844 43.4379L26.6123 45.1264Z" fill="#27FFF2" fill-opacity="0.4"/>
<path d="M25.6664 45.1779C25.6664 45.1779 25.8199 45.1779 25.9734 45.1779C26.1269 45.1779 26.2804 45.1523 26.2804 45.1523L26.1781 43.4639C26.1781 43.4639 26.0246 43.4639 25.8966 43.4895C25.7431 43.4895 25.6152 43.4895 25.6152 43.4895L25.6664 45.1779Z" fill="#27FFF2" fill-opacity="0.4"/>
<path d="M24.7207 45.2031C24.7207 45.2031 24.7719 45.2031 24.823 45.2031C24.8742 45.2031 24.9509 45.2031 25.0277 45.2031C25.1812 45.2031 25.3347 45.2031 25.3347 45.2031L25.3091 43.5146C25.3091 43.5146 25.1556 43.5146 25.0277 43.5146C24.9509 43.5146 24.8742 43.5146 24.823 43.5146C24.7719 43.5146 24.7207 43.5146 24.7207 43.5146V45.2031Z" fill="#27FFF2" fill-opacity="0.4"/>
<path d="M23.7734 45.1777C23.7734 45.1777 23.9269 45.2033 24.0804 45.2033C24.2339 45.2033 24.3874 45.2033 24.3874 45.2033L24.4386 43.5148C24.4386 43.5148 24.2851 43.5148 24.1572 43.5148C24.0037 43.5148 23.8758 43.4893 23.8758 43.4893L23.7734 45.1777Z" fill="#27FFF2" fill-opacity="0.4"/>
<path d="M22.8262 45.1006C22.8262 45.1006 22.8773 45.1006 22.9285 45.1006C22.9797 45.1006 23.0564 45.1006 23.1332 45.1262C23.2867 45.1262 23.4402 45.1518 23.4402 45.1518L23.5681 43.4633C23.5681 43.4633 23.4146 43.4633 23.2867 43.4377C23.2099 43.4377 23.1332 43.4377 23.082 43.4121C23.0308 43.4121 23.0053 43.4121 23.0053 43.4121L22.8262 45.1006Z" fill="#27FFF2" fill-opacity="0.4"/>
<path d="M21.8809 44.9725L22.5204 45.0492L22.7251 43.3863L22.1367 43.3096L21.8809 44.9725Z" fill="#27FFF2" fill-opacity="0.4"/>
<path d="M20.9609 44.8191L21.5749 44.9215L21.8563 43.2586L21.2935 43.1562L20.9609 44.8191Z" fill="#27FFF2" fill-opacity="0.4"/>
<path d="M20.0391 44.5895L20.6531 44.743L21.0112 43.0801L20.4484 42.9521L20.0391 44.5895Z" fill="#27FFF2" fill-opacity="0.4"/>
<path d="M19.1172 44.359L19.7312 44.5125L20.1661 42.9008L19.6033 42.7217L19.1172 44.359Z" fill="#27FFF2" fill-opacity="0.4"/>
<path d="M18.2227 44.052L18.8111 44.2566L19.3227 42.6449L18.7855 42.4658L18.2227 44.052Z" fill="#27FFF2" fill-opacity="0.4"/>
<path d="M17.3281 43.7197L17.9165 43.95L18.5049 42.3638L17.9677 42.1592L17.3281 43.7197Z" fill="#27FFF2" fill-opacity="0.4"/>
<path d="M16.459 43.3358L17.0218 43.5916L17.687 42.031L17.1753 41.8008L16.459 43.3358Z" fill="#27FFF2" fill-opacity="0.4"/>
<path d="M15.6113 42.9264L16.1742 43.2078L16.8905 41.6728L16.3788 41.417L15.6113 42.9264Z" fill="#27FFF2" fill-opacity="0.4"/>
<path d="M14.7695 42.466L15.3324 42.773L16.1254 41.2892L15.6394 41.0078L14.7695 42.466Z" fill="#27FFF2" fill-opacity="0.4"/>
<path d="M13.9746 41.9539L14.5119 42.2865L15.3817 40.8539L14.8956 40.5469L13.9746 41.9539Z" fill="#27FFF2" fill-opacity="0.4"/>
<path d="M13.1836 41.4166C13.1836 41.4166 13.3115 41.519 13.4394 41.5957C13.5162 41.6469 13.5673 41.698 13.6185 41.7236C13.6697 41.7492 13.6953 41.7748 13.6953 41.7748L14.6418 40.3677C14.6418 40.3677 14.6162 40.3421 14.5651 40.3166C14.5139 40.291 14.4627 40.2398 14.4116 40.2142C14.2837 40.1375 14.1813 40.0352 14.1813 40.0352L13.1836 41.4166Z" fill="#27FFF2" fill-opacity="0.4"/>
<path d="M12.4414 40.8537C12.4414 40.8537 12.5693 40.9561 12.6972 41.0584C12.7484 41.1096 12.8252 41.1607 12.8763 41.1863C12.9275 41.2119 12.9531 41.2375 12.9531 41.2375L13.9508 39.8816C13.9508 39.8816 13.9252 39.856 13.8741 39.8304C13.8229 39.8048 13.7717 39.7537 13.7206 39.7025C13.6182 39.6258 13.4903 39.5234 13.4903 39.5234L12.4414 40.8537Z" fill="#27FFF2" fill-opacity="0.4"/>
<path d="M11.6992 40.2401C11.6992 40.2401 11.8271 40.3424 11.9295 40.4447C11.9806 40.4959 12.0574 40.5471 12.083 40.5727C12.1341 40.5982 12.1597 40.6238 12.1597 40.6238L13.2342 39.3191C13.2342 39.3191 13.2086 39.2935 13.1574 39.2679C13.1063 39.2424 13.0551 39.1912 13.0039 39.14C12.9016 39.0377 12.7993 38.9609 12.7993 38.9609L11.6992 40.2401Z" fill="#27FFF2" fill-opacity="0.4"/>
<path d="M11.0098 39.6008C11.0098 39.6008 11.1121 39.7032 11.24 39.8055C11.2912 39.8567 11.3423 39.9078 11.3935 39.959C11.4447 40.0102 11.4703 40.0358 11.4703 40.0358L12.5959 38.7822C12.5959 38.7822 12.5703 38.7566 12.5192 38.731C12.468 38.7054 12.4168 38.6543 12.3657 38.6031C12.2633 38.5008 12.161 38.3984 12.161 38.3984L11.0098 39.6008Z" fill="#27FFF2" fill-opacity="0.4"/>
<path d="M7.98828 35.9679C7.98828 35.9679 8.06503 36.0958 8.16736 36.2237C8.21853 36.3004 8.24411 36.3516 8.29528 36.4028C8.32086 36.4539 8.34644 36.4795 8.34644 36.4795L9.72792 35.5074C9.72792 35.5074 9.70234 35.4818 9.67676 35.4306C9.65117 35.3795 9.60001 35.3283 9.57443 35.2771C9.49768 35.1492 9.42093 35.0469 9.42093 35.0469L7.98828 35.9679Z" fill="#27FFF2" fill-opacity="0.4"/>
<path d="M7.50391 35.1491C7.50391 35.1491 7.58066 35.277 7.65741 35.4305C7.73415 35.5584 7.81091 35.6864 7.81091 35.6864L9.24355 34.791C9.24355 34.791 9.1668 34.663 9.09005 34.5351C9.01331 34.4072 8.93655 34.2793 8.93655 34.2793L7.50391 35.1491Z" fill="#27FFF2" fill-opacity="0.4"/>
<path d="M7.04102 34.33C7.04102 34.33 7.11776 34.4579 7.19451 34.6114C7.27126 34.7393 7.34801 34.8928 7.34801 34.8928L8.83182 34.0742C8.83182 34.0742 8.75507 33.9462 8.67833 33.8183C8.60158 33.6904 8.55041 33.5625 8.55041 33.5625L7.04102 34.33Z" fill="#27FFF2" fill-opacity="0.4"/>
<path d="M6.63477 33.4859C6.63477 33.4859 6.71151 33.6394 6.76268 33.7673C6.83943 33.8952 6.91618 34.0487 6.91618 34.0487L8.42557 33.2812C8.42557 33.2812 8.34883 33.1533 8.29766 33.0254C8.24649 32.8974 8.16974 32.7695 8.16974 32.7695L6.63477 33.4859Z" fill="#27FFF2" fill-opacity="0.4"/>
<path d="M6.25 32.6161C6.25 32.6161 6.30117 32.7696 6.37791 32.8975C6.45466 33.051 6.50583 33.179 6.50583 33.179L8.04081 32.4882C8.04081 32.4882 7.98964 32.3603 7.91289 32.2324C7.86173 32.1045 7.81056 31.9766 7.81056 31.9766L6.25 32.6161Z" fill="#27FFF2" fill-opacity="0.4"/>
<path d="M5.91797 31.721C5.91797 31.721 5.96914 31.8745 6.0203 32.028C6.07147 32.1815 6.12263 32.3094 6.12263 32.3094L7.70878 31.6954C7.70878 31.6954 7.65761 31.5675 7.60645 31.4396C7.55528 31.3117 7.50411 31.1582 7.50411 31.1582L5.91797 31.721Z" fill="#27FFF2" fill-opacity="0.4"/>
<path d="M5.60938 30.8257C5.60938 30.8257 5.60938 30.8513 5.63496 30.9281C5.66054 30.9792 5.66054 31.056 5.68612 31.1327C5.73729 31.2862 5.78846 31.4397 5.78846 31.4397L7.40018 30.9025C7.40018 30.9025 7.34902 30.7746 7.29785 30.6211C7.27227 30.5443 7.24668 30.4932 7.24668 30.442C7.2211 30.3908 7.2211 30.3652 7.2211 30.3652L5.60938 30.8257Z" fill="#27FFF2" fill-opacity="0.4"/>
<path d="M5.38086 29.9044C5.38086 29.9044 5.40644 30.0579 5.45761 30.2114C5.50877 30.3649 5.53435 30.5184 5.53435 30.5184L7.14608 30.0579C7.14608 30.0579 7.09492 29.93 7.06933 29.7765C7.01817 29.6486 6.99258 29.4951 6.99258 29.4951L5.38086 29.9044Z" fill="#27FFF2" fill-opacity="0.4"/>
<path d="M5.15039 28.9839C5.15039 28.9839 5.15039 29.0351 5.17598 29.0863C5.20156 29.1374 5.20156 29.2142 5.22714 29.2909C5.25272 29.4444 5.30389 29.5979 5.30389 29.5979L6.9412 29.2142C6.9412 29.2142 6.91562 29.0863 6.86445 28.9328C6.83887 28.856 6.83887 28.8049 6.81328 28.7281C6.81328 28.6769 6.7877 28.6514 6.7877 28.6514L5.15039 28.9839Z" fill="#27FFF2" fill-opacity="0.4"/>
<path d="M4.99609 28.0371C4.99609 28.0371 4.99609 28.0883 5.02167 28.1394C5.02167 28.1906 5.04726 28.2673 5.04726 28.3441C5.07284 28.4976 5.09842 28.6511 5.09842 28.6511L6.76132 28.3441C6.76132 28.3441 6.73574 28.1906 6.71015 28.0627C6.71015 27.9859 6.68457 27.9092 6.68457 27.858C6.68457 27.8068 6.65899 27.7812 6.65899 27.7812L4.99609 28.0371Z" fill="#27FFF2" fill-opacity="0.4"/>
<path d="M4.86914 27.1156L4.94589 27.7296L6.63437 27.4994L6.55762 26.9365L4.86914 27.1156Z" fill="#27FFF2" fill-opacity="0.4"/>
<path d="M4.81836 26.1687L4.84394 26.7827L6.53242 26.6292L6.48125 26.0664L4.81836 26.1687Z" fill="#27FFF2" fill-opacity="0.4"/>
<path d="M4.76562 25.2229L4.79121 25.8368L6.47968 25.7857L6.4541 25.1973L4.76562 25.2229Z" fill="#27FFF2" fill-opacity="0.4"/>
<path d="M4.79121 24.3271L4.76562 24.9667H6.4541L6.47968 24.4039L4.79121 24.3271Z" fill="#27FFF2" fill-opacity="0.4"/>
<path d="M4.84218 23.3809L4.79102 24.0204L6.47949 24.0972L6.53066 23.5344L4.84218 23.3809Z" fill="#27FFF2" fill-opacity="0.4"/>
<path d="M4.94589 22.459C4.94589 22.459 4.9203 22.6125 4.89472 22.766C4.89472 22.8427 4.86914 22.9195 4.86914 22.9706C4.86914 23.0218 4.86914 23.073 4.86914 23.073L6.55762 23.2265C6.55762 23.2265 6.55762 23.2009 6.55762 23.1497C6.55762 23.0986 6.5832 23.0218 6.5832 22.9451C6.60878 22.7916 6.60878 22.6636 6.60878 22.6636L4.94589 22.459Z" fill="#27FFF2" fill-opacity="0.4"/>
<path d="M5.27654 20.5918C5.27654 20.5918 5.25096 20.7453 5.19979 20.8988C5.17421 20.9755 5.17421 21.0523 5.14863 21.1035C5.14863 21.1546 5.12305 21.2058 5.12305 21.2058L6.78594 21.5384C6.78594 21.5384 6.78594 21.5128 6.81152 21.4616C6.81152 21.4105 6.8371 21.3337 6.86269 21.257C6.88827 21.129 6.93944 20.9755 6.93944 20.9755L5.27654 20.5918Z" fill="#27FFF2" fill-opacity="0.4"/>
<path d="M5.50897 19.6709C5.50897 19.6709 5.4578 19.8244 5.43222 19.9779C5.40664 20.1314 5.35547 20.2849 5.35547 20.2849L6.99278 20.6942C6.99278 20.6942 7.01836 20.5663 7.06953 20.4128C7.12069 20.2849 7.14628 20.1314 7.14628 20.1314L5.50897 19.6709Z" fill="#27FFF2" fill-opacity="0.4"/>
<path d="M5.76502 18.75C5.76502 18.75 5.71385 18.9035 5.66269 19.057C5.61152 19.2105 5.58594 19.364 5.58594 19.364L7.19767 19.8501C7.19767 19.8501 7.24883 19.7222 7.27442 19.5687C7.32558 19.4407 7.37675 19.2872 7.37675 19.2872L5.76502 18.75Z" fill="#27FFF2" fill-opacity="0.4"/>
<path d="M6.09724 17.8545C6.09724 17.8545 6.04607 18.008 5.99491 18.1359C5.94374 18.2894 5.89258 18.4429 5.89258 18.4429L7.47872 19.0057C7.47872 19.0057 7.52989 18.8778 7.58105 18.7243C7.63222 18.5964 7.68339 18.4685 7.68339 18.4685L6.09724 17.8545Z" fill="#27FFF2" fill-opacity="0.4"/>
<path d="M6.4531 16.9844C6.4531 16.9844 6.42751 17.01 6.40193 17.0611C6.37635 17.1123 6.35076 17.189 6.32518 17.2658C6.27401 17.4193 6.19727 17.5472 6.19727 17.5472L7.75783 18.1612C7.75783 18.1612 7.80899 18.0333 7.86016 17.9054C7.88574 17.8286 7.91133 17.7774 7.93691 17.7263C7.96249 17.6751 7.96249 17.6495 7.96249 17.6495L6.4531 16.9844Z" fill="#27FFF2" fill-opacity="0.4"/>
<path d="M6.83806 16.1152C6.83806 16.1152 6.81247 16.1408 6.78689 16.192C6.76131 16.2432 6.73572 16.3199 6.68456 16.3966C6.60781 16.5501 6.55664 16.6781 6.55664 16.6781L8.09162 17.3688C8.09162 17.3688 8.14279 17.2409 8.21953 17.113C8.24512 17.0362 8.2707 16.9851 8.29628 16.9339C8.32187 16.8827 8.34745 16.8571 8.34745 16.8571L6.83806 16.1152Z" fill="#27FFF2" fill-opacity="0.4"/>
<path d="M8.27222 13.6592C8.27222 13.6592 8.24664 13.6848 8.22106 13.7359C8.19547 13.7871 8.14431 13.8383 8.09314 13.915C8.01639 14.0429 7.91406 14.1708 7.91406 14.1708L9.34671 15.0918C9.34671 15.0918 9.42346 14.9639 9.50021 14.8616C9.55137 14.8104 9.57696 14.7337 9.60254 14.7081C9.62812 14.6569 9.65371 14.6313 9.65371 14.6313L8.27222 13.6592Z" fill="#27FFF2" fill-opacity="0.4"/>
<path d="M8.83473 12.8916C8.83473 12.8916 8.80914 12.9172 8.78356 12.9683C8.75797 13.0195 8.70681 13.0707 8.65564 13.1474C8.55331 13.2753 8.47656 13.4033 8.47656 13.4033L9.85805 14.3754C9.85805 14.3754 9.93479 14.2475 10.0371 14.1452C10.0883 14.094 10.1139 14.0172 10.1395 13.9917C10.165 13.9405 10.1906 13.9149 10.1906 13.9149L8.83473 12.8916Z" fill="#27FFF2" fill-opacity="0.4"/>
<path d="M9.42085 12.1494C9.42085 12.1494 9.39527 12.175 9.36969 12.2262C9.34411 12.2773 9.29294 12.3285 9.24177 12.4052C9.13944 12.5332 9.03711 12.6611 9.03711 12.6611L10.3674 13.71C10.3674 13.71 10.4442 13.6076 10.5465 13.4797C10.5977 13.4286 10.6233 13.3774 10.6744 13.3262C10.7 13.2751 10.7256 13.2495 10.7256 13.2495L9.42085 12.1494Z" fill="#27FFF2" fill-opacity="0.4"/>
<path d="M10.0345 11.4336C10.0345 11.4336 10.0089 11.4592 9.95777 11.5103C9.9066 11.5615 9.85544 11.6127 9.80427 11.6638C9.70194 11.7918 9.59961 11.8941 9.59961 11.8941L10.8788 12.9942C10.8788 12.9942 10.9811 12.8918 11.0578 12.7895C11.109 12.7383 11.1602 12.6872 11.1858 12.636C11.2113 12.5848 11.2369 12.5592 11.2369 12.5592L10.0345 11.4336Z" fill="#27FFF2" fill-opacity="0.4"/>
<path d="M10.7025 10.7422C10.7025 10.7422 10.6769 10.7678 10.6257 10.8189C10.5746 10.8701 10.5234 10.9213 10.4722 10.9724C10.3699 11.0748 10.2676 11.2027 10.2676 11.2027L11.4956 12.3539L11.9049 11.9446L10.7025 10.7422Z" fill="#27FFF2" fill-opacity="0.4"/>
<path d="M11.3921 10.1025L10.9316 10.5374L12.1085 11.7399L12.5178 11.3561L11.3921 10.1025Z" fill="#27FFF2" fill-opacity="0.4"/>
<path d="M12.1072 9.48828L11.6211 9.89761L12.7467 11.1512L13.1817 10.793L12.1072 9.48828Z" fill="#27FFF2" fill-opacity="0.4"/>
<path d="M12.8494 8.90039L12.3633 9.28414L13.4122 10.5889L13.8471 10.2563L12.8494 8.90039Z" fill="#27FFF2" fill-opacity="0.4"/>
<path d="M13.6171 8.33789L13.1055 8.69605L14.1032 10.0775L14.5637 9.74495L13.6171 8.33789Z" fill="#27FFF2" fill-opacity="0.4"/>
<path d="M14.4103 7.82617L13.873 8.15875L14.8196 9.5914L15.3057 9.25882L14.4103 7.82617Z" fill="#27FFF2" fill-opacity="0.4"/>
<path d="M15.2287 7.36523L14.6914 7.67223L15.5356 9.13046L16.0473 8.82346L15.2287 7.36523Z" fill="#27FFF2" fill-opacity="0.4"/>
<path d="M16.0745 6.93066L15.5117 7.21207L16.3048 8.69589L16.8165 8.44006L16.0745 6.93066Z" fill="#27FFF2" fill-opacity="0.4"/>
<path d="M16.9419 6.52148L16.3535 6.77731L17.0698 8.31229L17.6071 8.08205L16.9419 6.52148Z" fill="#27FFF2" fill-opacity="0.4"/>
<path d="M17.8111 6.16309L17.2227 6.39333L17.8622 7.95389L18.3995 7.74923L17.8111 6.16309Z" fill="#27FFF2" fill-opacity="0.4"/>
<path d="M21.4695 5.16504C21.4695 5.16504 21.316 5.19063 21.1625 5.21621C21.0857 5.24179 21.009 5.24179 20.9578 5.26737C20.9066 5.26737 20.8555 5.29295 20.8555 5.29295L21.188 6.95585L21.7509 6.85352L21.4695 5.16504Z" fill="#27FFF2" fill-opacity="0.4"/>
<path d="M22.4167 5.03711C22.4167 5.03711 22.2632 5.0627 22.1097 5.08828C22.033 5.08828 21.9562 5.11386 21.9051 5.11386C21.8539 5.11386 21.8027 5.13944 21.8027 5.13944L22.0586 6.80234C22.0586 6.80234 22.0841 6.80234 22.1353 6.77675C22.1865 6.77675 22.2632 6.75117 22.34 6.75117C22.4935 6.72559 22.6214 6.72559 22.6214 6.72559L22.4167 5.03711Z" fill="#27FFF2" fill-opacity="0.4"/>
<path d="M23.3386 4.93555C23.3386 4.93555 23.1851 4.93555 23.0316 4.96113C22.8781 4.96113 22.7246 4.98671 22.7246 4.98671L22.9037 6.67519C22.9037 6.67519 23.0572 6.64961 23.1851 6.64961C23.3386 6.64961 23.4665 6.62403 23.4665 6.62403L23.3386 4.93555Z" fill="#27FFF2" fill-opacity="0.4"/>
<path d="M24.2859 4.88379C24.2859 4.88379 24.1324 4.88379 23.9789 4.88379C23.9021 4.88379 23.8254 4.88379 23.7742 4.88379C23.723 4.88379 23.6719 4.88379 23.6719 4.88379L23.7742 6.57226C23.7742 6.57226 23.7998 6.57226 23.851 6.57226C23.9021 6.57226 23.9789 6.57226 24.0556 6.57226C24.2091 6.57226 24.337 6.57226 24.337 6.57226L24.2859 4.88379Z" fill="#27FFF2" fill-opacity="0.4"/>
<path d="M25.2331 4.88379C25.2331 4.88379 25.0796 4.88379 24.9261 4.88379C24.7726 4.88379 24.6191 4.88379 24.6191 4.88379L24.6447 6.57226C24.6447 6.57226 24.7982 6.57226 24.9261 6.57226C25.0796 6.57226 25.2076 6.57226 25.2076 6.57226L25.2331 4.88379Z" fill="#27FFF2" fill-opacity="0.4"/>
<path d="M26.1788 4.91016C26.1788 4.91016 26.1277 4.91016 26.0765 4.91016C26.0253 4.91016 25.9486 4.91016 25.8718 4.91016C25.7183 4.91016 25.5648 4.91016 25.5648 4.91016L25.5137 6.59863C25.5137 6.59863 25.6672 6.59863 25.7951 6.59863C25.8718 6.59863 25.9486 6.59863 25.9998 6.59863C26.0509 6.59863 26.0765 6.59863 26.0765 6.59863L26.1788 4.91016Z" fill="#27FFF2" fill-opacity="0.4"/>
<path d="M27.1247 4.98671C27.1247 4.98671 26.9712 4.96113 26.8177 4.96113C26.6642 4.96113 26.5107 4.93555 26.5107 4.93555L26.3828 6.62403C26.3828 6.62403 26.5363 6.62402 26.6642 6.64961C26.8177 6.64961 26.9456 6.67519 26.9456 6.67519L27.1247 4.98671Z" fill="#27FFF2" fill-opacity="0.4"/>
<path d="M28.0706 5.11405C28.0706 5.11405 28.0194 5.11405 27.9683 5.08847C27.9171 5.08847 27.8404 5.06288 27.7636 5.06288C27.6101 5.0373 27.4566 5.01172 27.4566 5.01172L27.252 6.67461C27.252 6.67461 27.4055 6.70019 27.5334 6.70019C27.6101 6.70019 27.6869 6.72578 27.738 6.72578C27.7892 6.72578 27.8148 6.75136 27.8148 6.75136L28.0706 5.11405Z" fill="#27FFF2" fill-opacity="0.4"/>
<path d="M28.995 5.26737L28.381 5.16504L28.0996 6.82793L28.6624 6.93027L28.995 5.26737Z" fill="#27FFF2" fill-opacity="0.4"/>
<path d="M29.9136 5.49822L29.3252 5.34473L28.9414 7.00762L29.5042 7.13554L29.9136 5.49822Z" fill="#27FFF2" fill-opacity="0.4"/>
<path d="M30.8341 5.7533L30.2456 5.57422L29.7852 7.21153L30.348 7.36503L30.8341 5.7533Z" fill="#27FFF2" fill-opacity="0.4"/>
<path d="M31.7309 6.03553L31.1425 5.85645L30.6309 7.44259L31.1681 7.62167L31.7309 6.03553Z" fill="#27FFF2" fill-opacity="0.4"/>
<path d="M32.626 6.39333L32.0376 6.16309L31.4492 7.72365L31.9865 7.95389L32.626 6.39333Z" fill="#27FFF2" fill-opacity="0.4"/>
<path d="M33.4938 6.77731L32.931 6.52148L32.2402 8.05646L32.7775 8.28671L33.4938 6.77731Z" fill="#27FFF2" fill-opacity="0.4"/>
<path d="M34.3379 7.18571L33.7751 6.9043L33.0332 8.4137L33.5449 8.69511L34.3379 7.18571Z" fill="#27FFF2" fill-opacity="0.4"/>
<path d="M35.1586 7.64684L34.6214 7.33984L33.8027 8.82366L34.3144 9.10507L35.1586 7.64684Z" fill="#27FFF2" fill-opacity="0.4"/>
<path d="M35.9774 8.15875L35.4401 7.82617L34.5703 9.25882L35.0564 9.56582L35.9774 8.15875Z" fill="#27FFF2" fill-opacity="0.4"/>
<path d="M36.7453 8.69605L36.2337 8.33789L35.2871 9.71937L35.7732 10.0519L36.7453 8.69605Z" fill="#27FFF2" fill-opacity="0.4"/>
<path d="M37.5114 9.25874L37.0253 8.875L36.002 10.2309L36.4625 10.5891L37.5114 9.25874Z" fill="#27FFF2" fill-opacity="0.4"/>
<path d="M38.2283 9.87222L37.7678 9.46289L36.6934 10.7676L37.1283 11.1514L38.2283 9.87222Z" fill="#27FFF2" fill-opacity="0.4"/>
<path d="M38.9201 10.5121C38.9201 10.5121 38.8178 10.4097 38.6899 10.3074C38.6387 10.2562 38.5876 10.2051 38.5364 10.1539C38.4852 10.1027 38.4596 10.0771 38.4596 10.0771L37.334 11.3307C37.334 11.3307 37.3596 11.3563 37.4107 11.3819C37.4619 11.4075 37.5131 11.4586 37.5642 11.5098C37.6666 11.6121 37.7689 11.7145 37.7689 11.7145L38.9201 10.5121Z" fill="#27FFF2" fill-opacity="0.4"/>
<path d="M39.5826 11.1773C39.5826 11.1773 39.4803 11.075 39.378 10.947C39.3268 10.8959 39.2756 10.8447 39.2245 10.7935C39.1733 10.7424 39.1477 10.7168 39.1477 10.7168L37.9453 11.9192C37.9453 11.9192 37.9709 11.9448 37.9965 11.9704C38.0221 12.0215 38.0732 12.0727 38.1244 12.1239C38.2267 12.2262 38.3291 12.3285 38.3291 12.3285L39.5826 11.1773Z" fill="#27FFF2" fill-opacity="0.4"/>
<path d="M40.2236 11.8941C40.2236 11.8941 40.1213 11.7662 40.019 11.6638C39.9678 11.6127 39.9166 11.5359 39.8655 11.5103C39.8143 11.4592 39.7887 11.4336 39.7887 11.4336L38.5352 12.5848C38.5352 12.5848 38.5607 12.6104 38.5863 12.6616C38.6119 12.7127 38.6631 12.7639 38.7142 12.8151C38.8166 12.9174 38.8933 13.0197 38.8933 13.0197L40.2236 11.8941Z" fill="#27FFF2" fill-opacity="0.4"/>
<path d="M40.8389 12.6103C40.8389 12.6103 40.7365 12.4824 40.6342 12.3545C40.583 12.3033 40.5319 12.2265 40.5063 12.1754C40.4807 12.1242 40.4551 12.0986 40.4551 12.0986L39.1504 13.1731C39.1504 13.1731 39.176 13.1987 39.2016 13.2499C39.2271 13.301 39.2783 13.3522 39.3295 13.4034C39.4062 13.5057 39.5086 13.6336 39.5086 13.6336L40.8389 12.6103Z" fill="#27FFF2" fill-opacity="0.4"/>
<path d="M41.4016 13.3779C41.4016 13.3779 41.2992 13.25 41.2225 13.122C41.1713 13.0709 41.1201 12.9941 41.0946 12.943C41.069 12.8918 41.0434 12.8662 41.0434 12.8662L39.6875 13.8895C39.6875 13.8895 39.7131 13.9151 39.7387 13.9663C39.7642 14.0174 39.8154 14.0686 39.8666 14.1198C39.9433 14.2477 40.0457 14.35 40.0457 14.35L41.4016 13.3779Z" fill="#27FFF2" fill-opacity="0.4"/>
<path d="M41.9389 14.1708C41.9389 14.1708 41.8621 14.0429 41.7598 13.915C41.683 13.7871 41.5807 13.6592 41.5807 13.6592L40.1992 14.6057C40.1992 14.6057 40.276 14.7337 40.3527 14.836C40.4295 14.9639 40.5062 15.0662 40.5062 15.0662L41.9389 14.1708Z" fill="#27FFF2" fill-opacity="0.4"/>
<path d="M42.4232 14.964C42.4232 14.964 42.3465 14.8361 42.2697 14.6826C42.193 14.5547 42.1162 14.4268 42.1162 14.4268L40.6836 15.3222C40.6836 15.3222 40.7603 15.4501 40.8371 15.578C40.9138 15.7059 40.9906 15.8338 40.9906 15.8338L42.4232 14.964Z" fill="#27FFF2" fill-opacity="0.4"/>
<path d="M42.8846 15.8078C42.8846 15.8078 42.8078 15.6798 42.7311 15.5263C42.7055 15.4496 42.6543 15.3984 42.6287 15.3473C42.6031 15.2961 42.5776 15.2705 42.5776 15.2705L41.0938 16.0892C41.0938 16.0892 41.1193 16.1147 41.1449 16.1659C41.1705 16.2171 41.1961 16.2682 41.2472 16.345C41.324 16.4729 41.3752 16.6008 41.3752 16.6008L42.8846 15.8078Z" fill="#27FFF2" fill-opacity="0.4"/>
<path d="M43.2947 16.6527C43.2947 16.6527 43.218 16.4992 43.1668 16.3713C43.1412 16.2945 43.0901 16.2178 43.0645 16.1666C43.0389 16.1154 43.0133 16.0898 43.0133 16.0898L41.5039 16.8317C41.5039 16.8317 41.5295 16.8573 41.5551 16.9085C41.5807 16.9597 41.6062 17.0108 41.6318 17.0876C41.683 17.2155 41.7597 17.3434 41.7597 17.3434L43.2947 16.6527Z" fill="#27FFF2" fill-opacity="0.4"/>
<path d="M43.6521 17.5218C43.6521 17.5218 43.601 17.3683 43.5242 17.2404C43.4731 17.0869 43.3963 16.959 43.3963 16.959L41.8613 17.6241C41.8613 17.6241 41.9125 17.7521 41.9892 17.88C42.0404 18.0079 42.0916 18.1358 42.0916 18.1358L43.6521 17.5218Z" fill="#27FFF2" fill-opacity="0.4"/>
<path d="M43.9842 18.4175C43.9842 18.4175 43.933 18.264 43.8818 18.1105C43.8307 17.957 43.7795 17.8291 43.7795 17.8291L42.1934 18.4431C42.1934 18.4431 42.2445 18.571 42.2957 18.6989C42.3469 18.8268 42.398 18.9803 42.398 18.9803L43.9842 18.4175Z" fill="#27FFF2" fill-opacity="0.4"/>
<path d="M44.2908 19.3132C44.2908 19.3132 44.2396 19.1597 44.2141 19.0062C44.1629 18.8527 44.1117 18.6992 44.1117 18.6992L42.5 19.2365C42.5 19.2365 42.5512 19.3644 42.6023 19.5179C42.6535 19.6458 42.6791 19.7993 42.6791 19.7993L44.2908 19.3132Z" fill="#27FFF2" fill-opacity="0.4"/>
<path d="M44.5213 20.2331C44.5213 20.2331 44.4957 20.0796 44.4445 19.9261C44.3934 19.7726 44.3678 19.6191 44.3678 19.6191L42.7305 20.0796C42.7305 20.0796 42.7816 20.2076 42.8072 20.361C42.8328 20.489 42.884 20.6425 42.884 20.6425L44.5213 20.2331Z" fill="#27FFF2" fill-opacity="0.4"/>
<path d="M44.7264 21.155C44.7264 21.155 44.7264 21.1038 44.7008 21.0527C44.7008 21.0015 44.6752 20.9248 44.6496 20.848C44.624 20.6945 44.5729 20.541 44.5729 20.541L42.9355 20.9248C42.9355 20.9248 42.9611 21.0527 43.0123 21.2062C43.0379 21.2829 43.0379 21.3341 43.0635 21.4108C43.0635 21.462 43.089 21.4876 43.089 21.4876L44.7264 21.155Z" fill="#27FFF2" fill-opacity="0.4"/>
<path d="M44.9039 22.1013C44.9039 22.1013 44.8783 21.9478 44.8527 21.7943C44.8271 21.6408 44.8016 21.4873 44.8016 21.4873L43.1387 21.7943C43.1387 21.7943 43.1643 21.9478 43.1898 22.0757C43.2154 22.2292 43.241 22.3571 43.241 22.3571L44.9039 22.1013Z" fill="#27FFF2" fill-opacity="0.4"/>
<path d="M45.0072 23.0476C45.0072 23.0476 45.0072 22.9964 45.0072 22.9453C45.0072 22.8941 44.9816 22.8173 44.9816 22.7406C44.9561 22.5871 44.9305 22.4336 44.9305 22.4336L43.2676 22.6383C43.2676 22.6383 43.2932 22.7918 43.2932 22.9197C43.2932 22.9964 43.3187 23.0732 43.3187 23.1243C43.3187 23.1755 43.3187 23.2011 43.3187 23.2011L45.0072 23.0476Z" fill="#27FFF2" fill-opacity="0.4"/>
<path d="M45.0853 23.995L45.0342 23.3555L43.3457 23.509L43.3969 24.0718L45.0853 23.995Z" fill="#27FFF2" fill-opacity="0.4"/>
<path d="M45.1086 24.9413L45.083 24.3018L43.3945 24.3785L43.4201 24.9413H45.1086Z" fill="#27FFF2" fill-opacity="0.4"/>
</g>
<path d="M37.5 37.5C44.4036 30.5964 44.4036 19.4036 37.5 12.5C30.5964 5.59644 19.4036 5.59644 12.5 12.5C5.59644 19.4036 5.59644 30.5964 12.5 37.5C19.4036 44.4036 30.5964 44.4036 37.5 37.5Z" stroke="#87C5FF" stroke-miterlimit="10"/>
<path fill-rule="evenodd" clip-rule="evenodd" d="M22.255 18.0186C22.255 15.6815 24.165 13.7715 26.5021 13.7715H30.0243C30.4504 13.7715 30.7866 14.1078 30.7866 14.5338V17.6064C30.7866 18.0324 30.4504 18.3687 30.0243 18.3687H27.926C27.6775 18.3687 27.4892 18.557 27.4892 18.8055V20.5162H29.9494C30.2011 20.5162 30.3988 20.6434 30.5209 20.7898C30.6407 20.9337 30.7117 21.1212 30.7117 21.316V21.3373L30.7099 21.3585L30.4489 24.4158C30.4332 24.8374 30.0544 25.1135 29.6871 25.1135H27.4517V34.8805C27.4517 35.3065 27.1155 35.6428 26.6894 35.6428H22.9423C22.5163 35.6428 22.18 35.3065 22.18 34.8805V25.1135H20.8814C20.4554 25.1135 20.1191 24.7772 20.1191 24.3512V21.2785C20.1191 20.8525 20.4554 20.5162 20.8814 20.5162H22.255V18.0186ZM23.18 25.3008V34.6428H26.4517V24.6135V24.1135H26.9517H29.4711L29.6928 21.5162H26.9892H26.4892V21.0162V18.8055C26.4892 18.0047 27.1252 17.3687 27.926 17.3687H29.7866V14.7715H26.5021C24.7173 14.7715 23.255 16.2338 23.255 18.0186V21.0162V21.5162H22.755H21.1191V24.1135H22.755H23.255V24.6135V24.8008V25.3008H23.18Z" fill="white"/>
</svg>
